%YAML 1.1
%TAG !u! tag:unity3d.com,2011:
--- !u!114 &11400000
MonoBehaviour:
  m_ObjectHideFlags: 0
  m_CorrespondingSourceObject: {fileID: 0}
  m_PrefabInstance: {fileID: 0}
  m_PrefabAsset: {fileID: 0}
  m_GameObject: {fileID: 0}
  m_Enabled: 1
  m_EditorHideFlags: 0
  m_Script: {fileID: 11500000, guid: bbb281ee3bf0b054c82ac2347e9e782c, type: 3}
  m_Name: Default Local Group
  m_EditorClassIdentifier: 
  m_GroupName: Default Local Group
  m_Data:
    m_SerializedData: []
  m_GUID: a7364e0ae95a84d418f09a62de3917c2
  m_SerializeEntries:
  - m_GUID: 08806cf816b9b8247a3d0c07d8bd0319
    m_Address: prompts/DualShock4GamepadHID/buttonWest
    m_ReadOnly: 0
    m_SerializedLabels: []
  - m_GUID: 1aeea8df35283894ba75622151aca0f4
    m_Address: prompts/XInputControllerWindows/buttonWest
    m_ReadOnly: 0
    m_SerializedLabels: []
  - m_GUID: 42367cb7f39524e44b34f70c03372d20
    m_Address: prompts/XInputControllerWindows/buttonSouth
    m_ReadOnly: 0
    m_SerializedLabels: []
  - m_GUID: 51df8830b70e6c240b37510fa8257fef
    m_Address: prompts/Keyboard/f
    m_ReadOnly: 0
    m_SerializedLabels: []
  - m_GUID: 88f9b4dcd455dea408bea92bdb9e192b
    m_Address: prompts/DualShock4GamepadHID/buttonSouth
    m_ReadOnly: 0
    m_SerializedLabels: []
  - m_GUID: a0ebb4e5decdcdb449657eb204409b0d
    m_Address: prompts/keyboard/space
    m_ReadOnly: 0
    m_SerializedLabels: []
  - m_GUID: e75abda2ec3275449b8d5042a351a911
    m_Address: VFX/Bad Explosion
    m_ReadOnly: 0
    m_SerializedLabels: []
  m_ReadOnly: 0
  m_Settings: {fileID: 11400000, guid: 1c9e87f4c88fa6443bc3aac6045c80c9, type: 2}
  m_SchemaSet:
    m_Schemas:
    - {fileID: 11400000, guid: 85fcac7584c58ba479dc05ba49646371, type: 2}
    - {fileID: 11400000, guid: b03d329a3d4bab246b528bc14e909774, type: 2}
