%YAML 1.1
%TAG !u! tag:unity3d.com,2011:
--- !u!1001 &4356438842880379965
PrefabInstance:
  m_ObjectHideFlags: 0
  serializedVersion: 2
  m_Modification:
    m_TransformParent: {fileID: 0}
    m_Modifications:
    - target: {fileID: 475649184853574606, guid: 7775f5b6fe7920b41b0dce3fdcb5165c,
        type: 3}
      propertyPath: m_Sprite
      value: 
      objectReference: {fileID: 21300000, guid: 72da3486f8c031640ba87ef617eb5dc3,
        type: 3}
    - target: {fileID: 3192578198085625151, guid: 7775f5b6fe7920b41b0dce3fdcb5165c,
        type: 3}
      propertyPath: m_Points.m_Paths.Array.data[0].Array.size
      value: 9
      objectReference: {fileID: 0}
    - target: {fileID: 3192578198085625151, guid: 7775f5b6fe7920b41b0dce3fdcb5165c,
        type: 3}
      propertyPath: m_Points.m_Paths.Array.data[0].Array.data[6].x
      value: -0.5826324
      objectReference: {fileID: 0}
    - target: {fileID: 3192578198085625151, guid: 7775f5b6fe7920b41b0dce3fdcb5165c,
        type: 3}
      propertyPath: m_Points.m_Paths.Array.data[0].Array.data[6].y
      value: -0.5751981
      objectReference: {fileID: 0}
    - target: {fileID: 3192578198085625151, guid: 7775f5b6fe7920b41b0dce3fdcb5165c,
        type: 3}
      propertyPath: m_Points.m_Paths.Array.data[0].Array.data[7].y
      value: -1.8834462
      objectReference: {fileID: 0}
    - target: {fileID: 3192578198085625151, guid: 7775f5b6fe7920b41b0dce3fdcb5165c,
        type: 3}
      propertyPath: m_Points.m_Paths.Array.data[0].Array.data[7].x
      value: -0.05601114
      objectReference: {fileID: 0}
    - target: {fileID: 3192578198085625151, guid: 7775f5b6fe7920b41b0dce3fdcb5165c,
        type: 3}
      propertyPath: m_Points.m_Paths.Array.data[0].Array.data[5].x
      value: -0.6889496
      objectReference: {fileID: 0}
    - target: {fileID: 3192578198085625151, guid: 7775f5b6fe7920b41b0dce3fdcb5165c,
        type: 3}
      propertyPath: m_Points.m_Paths.Array.data[0].Array.data[5].y
      value: 0.7735452
      objectReference: {fileID: 0}
    - target: {fileID: 3192578198085625151, guid: 7775f5b6fe7920b41b0dce3fdcb5165c,
        type: 3}
      propertyPath: m_Points.m_Paths.Array.data[0].Array.data[4].x
      value: -0.55710256
      objectReference: {fileID: 0}
    - target: {fileID: 3192578198085625151, guid: 7775f5b6fe7920b41b0dce3fdcb5165c,
        type: 3}
      propertyPath: m_Points.m_Paths.Array.data[0].Array.data[4].y
      value: 1.7153523
      objectReference: {fileID: 0}
    - target: {fileID: 3192578198085625151, guid: 7775f5b6fe7920b41b0dce3fdcb5165c,
        type: 3}
      propertyPath: m_Points.m_Paths.Array.data[0].Array.data[3].y
      value: 1.6340038
      objectReference: {fileID: 0}
    - target: {fileID: 3192578198085625151, guid: 7775f5b6fe7920b41b0dce3fdcb5165c,
        type: 3}
      propertyPath: m_Points.m_Paths.Array.data[0].Array.data[3].x
      value: 0.28636074
      objectReference: {fileID: 0}
    - target: {fileID: 3192578198085625151, guid: 7775f5b6fe7920b41b0dce3fdcb5165c,
        type: 3}
      propertyPath: m_Points.m_Paths.Array.data[0].Array.data[2].x
      value: 0.45708907
      objectReference: {fileID: 0}
    - target: {fileID: 3192578198085625151, guid: 7775f5b6fe7920b41b0dce3fdcb5165c,
        type: 3}
      propertyPath: m_Points.m_Paths.Array.data[0].Array.data[2].y
      value: 0.98758346
      objectReference: {fileID: 0}
    - target: {fileID: 3192578198085625151, guid: 7775f5b6fe7920b41b0dce3fdcb5165c,
        type: 3}
      propertyPath: m_Points.m_Paths.Array.data[0].Array.data[1].x
      value: 0.26946038
      objectReference: {fileID: 0}
    - target: {fileID: 3192578198085625151, guid: 7775f5b6fe7920b41b0dce3fdcb5165c,
        type: 3}
      propertyPath: m_Points.m_Paths.Array.data[0].Array.data[1].y
      value: 0.066728815
      objectReference: {fileID: 0}
    - target: {fileID: 3192578198085625151, guid: 7775f5b6fe7920b41b0dce3fdcb5165c,
        type: 3}
      propertyPath: m_Points.m_Paths.Array.data[0].Array.data[0].x
      value: 0.6554538
      objectReference: {fileID: 0}
    - target: {fileID: 3192578198085625151, guid: 7775f5b6fe7920b41b0dce3fdcb5165c,
        type: 3}
      propertyPath: m_Points.m_Paths.Array.data[0].Array.data[0].y
      value: -0.9957764
      objectReference: {fileID: 0}
    - target: {fileID: 3192578198085625151, guid: 7775f5b6fe7920b41b0dce3fdcb5165c,
        type: 3}
      propertyPath: m_Points.m_Paths.Array.data[0].Array.data[8].x
      value: 0.70583606
      objectReference: {fileID: 0}
    - target: {fileID: 3192578198085625151, guid: 7775f5b6fe7920b41b0dce3fdcb5165c,
        type: 3}
      propertyPath: m_Points.m_Paths.Array.data[0].Array.data[8].y
      value: -1.7451577
      objectReference: {fileID: 0}
    - target: {fileID: 5372545297520462376, guid: 7775f5b6fe7920b41b0dce3fdcb5165c,
        type: 3}
      propertyPath: m_LocalPosition.x
      value: 0
      objectReference: {fileID: 0}
    - target: {fileID: 5372545297520462376, guid: 7775f5b6fe7920b41b0dce3fdcb5165c,
        type: 3}
      propertyPath: m_LocalPosition.y
      value: 0
      objectReference: {fileID: 0}
    - target: {fileID: 5372545297520462376, guid: 7775f5b6fe7920b41b0dce3fdcb5165c,
        type: 3}
      propertyPath: m_LocalPosition.z
      value: 0
      objectReference: {fileID: 0}
    - target: {fileID: 5372545297520462376, guid: 7775f5b6fe7920b41b0dce3fdcb5165c,
        type: 3}
      propertyPath: m_LocalRotation.x
      value: 0
      objectReference: {fileID: 0}
    - target: {fileID: 5372545297520462376, guid: 7775f5b6fe7920b41b0dce3fdcb5165c,
        type: 3}
      propertyPath: m_LocalRotation.y
      value: 0
      objectReference: {fileID: 0}
    - target: {fileID: 5372545297520462376, guid: 7775f5b6fe7920b41b0dce3fdcb5165c,
        type: 3}
      propertyPath: m_LocalRotation.z
      value: 0
      objectReference: {fileID: 0}
    - target: {fileID: 5372545297520462376, guid: 7775f5b6fe7920b41b0dce3fdcb5165c,
        type: 3}
      propertyPath: m_LocalRotation.w
      value: 1
      objectReference: {fileID: 0}
    - target: {fileID: 5372545297520462376, guid: 7775f5b6fe7920b41b0dce3fdcb5165c,
        type: 3}
      propertyPath: m_RootOrder
      value: 0
      objectReference: {fileID: 0}
    - target: {fileID: 5372545297520462376, guid: 7775f5b6fe7920b41b0dce3fdcb5165c,
        type: 3}
      propertyPath: m_LocalEulerAnglesHint.x
      value: 0
      objectReference: {fileID: 0}
    - target: {fileID: 5372545297520462376, guid: 7775f5b6fe7920b41b0dce3fdcb5165c,
        type: 3}
      propertyPath: m_LocalEulerAnglesHint.y
      value: 0
      objectReference: {fileID: 0}
    - target: {fileID: 5372545297520462376, guid: 7775f5b6fe7920b41b0dce3fdcb5165c,
        type: 3}
      propertyPath: m_LocalEulerAnglesHint.z
      value: 0
      objectReference: {fileID: 0}
    - target: {fileID: 9176912846894136922, guid: 7775f5b6fe7920b41b0dce3fdcb5165c,
        type: 3}
      propertyPath: m_Name
      value: Railing8
      objectReference: {fileID: 0}
    m_RemovedComponents: []
  m_SourcePrefab: {fileID: 100100000, guid: 7775f5b6fe7920b41b0dce3fdcb5165c, type: 3}
