%YAML 1.1
%TAG !u! tag:unity3d.com,2011:
--- !u!1001 &3113475867220396258
PrefabInstance:
  m_ObjectHideFlags: 0
  serializedVersion: 2
  m_Modification:
    m_TransformParent: {fileID: 0}
    m_Modifications:
    - target: {fileID: 475649184853574606, guid: 7775f5b6fe7920b41b0dce3fdcb5165c,
        type: 3}
      propertyPath: m_Sprite
      value: 
      objectReference: {fileID: 21300000, guid: 497ce77617e9d604abfc25ec94b22b83,
        type: 3}
    - target: {fileID: 3192578198085625151, guid: 7775f5b6fe7920b41b0dce3fdcb5165c,
        type: 3}
      propertyPath: m_Points.m_Paths.Array.data[0].Array.data[4].y
      value: 0.7069013
      objectReference: {fileID: 0}
    - target: {fileID: 3192578198085625151, guid: 7775f5b6fe7920b41b0dce3fdcb5165c,
        type: 3}
      propertyPath: m_Points.m_Paths.Array.data[0].Array.data[4].x
      value: -1.0904725
      objectReference: {fileID: 0}
    - target: {fileID: 3192578198085625151, guid: 7775f5b6fe7920b41b0dce3fdcb5165c,
        type: 3}
      propertyPath: m_Points.m_Paths.Array.data[0].Array.data[5].y
      value: 0.054213077
      objectReference: {fileID: 0}
    - target: {fileID: 3192578198085625151, guid: 7775f5b6fe7920b41b0dce3fdcb5165c,
        type: 3}
      propertyPath: m_Points.m_Paths.Array.data[0].Array.data[5].x
      value: -1.1585444
      objectReference: {fileID: 0}
    - target: {fileID: 3192578198085625151, guid: 7775f5b6fe7920b41b0dce3fdcb5165c,
        type: 3}
      propertyPath: m_Points.m_Paths.Array.data[0].Array.data[6].x
      value: -0.8880236
      objectReference: {fileID: 0}
    - target: {fileID: 3192578198085625151, guid: 7775f5b6fe7920b41b0dce3fdcb5165c,
        type: 3}
      propertyPath: m_Points.m_Paths.Array.data[0].Array.data[6].y
      value: -0.4504268
      objectReference: {fileID: 0}
    - target: {fileID: 3192578198085625151, guid: 7775f5b6fe7920b41b0dce3fdcb5165c,
        type: 3}
      propertyPath: m_Points.m_Paths.Array.data[0].Array.data[7].x
      value: 0.096373886
      objectReference: {fileID: 0}
    - target: {fileID: 3192578198085625151, guid: 7775f5b6fe7920b41b0dce3fdcb5165c,
        type: 3}
      propertyPath: m_Points.m_Paths.Array.data[0].Array.data[7].y
      value: -0.22565922
      objectReference: {fileID: 0}
    - target: {fileID: 3192578198085625151, guid: 7775f5b6fe7920b41b0dce3fdcb5165c,
        type: 3}
      propertyPath: m_Points.m_Paths.Array.data[0].Array.data[0].y
      value: -0.15535194
      objectReference: {fileID: 0}
    - target: {fileID: 3192578198085625151, guid: 7775f5b6fe7920b41b0dce3fdcb5165c,
        type: 3}
      propertyPath: m_Points.m_Paths.Array.data[0].Array.data[0].x
      value: 0.8318713
      objectReference: {fileID: 0}
    - target: {fileID: 3192578198085625151, guid: 7775f5b6fe7920b41b0dce3fdcb5165c,
        type: 3}
      propertyPath: m_Points.m_Paths.Array.data[0].Array.data[2].x
      value: 0.70580465
      objectReference: {fileID: 0}
    - target: {fileID: 3192578198085625151, guid: 7775f5b6fe7920b41b0dce3fdcb5165c,
        type: 3}
      propertyPath: m_Points.m_Paths.Array.data[0].Array.data[2].y
      value: 1.0227767
      objectReference: {fileID: 0}
    - target: {fileID: 3192578198085625151, guid: 7775f5b6fe7920b41b0dce3fdcb5165c,
        type: 3}
      propertyPath: m_Points.m_Paths.Array.data[0].Array.data[3].x
      value: -0.16057572
      objectReference: {fileID: 0}
    - target: {fileID: 3192578198085625151, guid: 7775f5b6fe7920b41b0dce3fdcb5165c,
        type: 3}
      propertyPath: m_Points.m_Paths.Array.data[0].Array.data[3].y
      value: 0.92906
      objectReference: {fileID: 0}
    - target: {fileID: 3192578198085625151, guid: 7775f5b6fe7920b41b0dce3fdcb5165c,
        type: 3}
      propertyPath: m_Points.m_Paths.Array.data[0].Array.data[1].y
      value: 0.4926277
      objectReference: {fileID: 0}
    - target: {fileID: 3192578198085625151, guid: 7775f5b6fe7920b41b0dce3fdcb5165c,
        type: 3}
      propertyPath: m_Points.m_Paths.Array.data[0].Array.data[1].x
      value: 0.83498317
      objectReference: {fileID: 0}
    - target: {fileID: 5372545297520462376, guid: 7775f5b6fe7920b41b0dce3fdcb5165c,
        type: 3}
      propertyPath: m_LocalPosition.x
      value: 0
      objectReference: {fileID: 0}
    - target: {fileID: 5372545297520462376, guid: 7775f5b6fe7920b41b0dce3fdcb5165c,
        type: 3}
      propertyPath: m_LocalPosition.y
      value: 0
      objectReference: {fileID: 0}
    - target: {fileID: 5372545297520462376, guid: 7775f5b6fe7920b41b0dce3fdcb5165c,
        type: 3}
      propertyPath: m_LocalPosition.z
      value: 0
      objectReference: {fileID: 0}
    - target: {fileID: 5372545297520462376, guid: 7775f5b6fe7920b41b0dce3fdcb5165c,
        type: 3}
      propertyPath: m_LocalRotation.x
      value: 0
      objectReference: {fileID: 0}
    - target: {fileID: 5372545297520462376, guid: 7775f5b6fe7920b41b0dce3fdcb5165c,
        type: 3}
      propertyPath: m_LocalRotation.y
      value: 0
      objectReference: {fileID: 0}
    - target: {fileID: 5372545297520462376, guid: 7775f5b6fe7920b41b0dce3fdcb5165c,
        type: 3}
      propertyPath: m_LocalRotation.z
      value: 0
      objectReference: {fileID: 0}
    - target: {fileID: 5372545297520462376, guid: 7775f5b6fe7920b41b0dce3fdcb5165c,
        type: 3}
      propertyPath: m_LocalRotation.w
      value: 1
      objectReference: {fileID: 0}
    - target: {fileID: 5372545297520462376, guid: 7775f5b6fe7920b41b0dce3fdcb5165c,
        type: 3}
      propertyPath: m_RootOrder
      value: 0
      objectReference: {fileID: 0}
    - target: {fileID: 5372545297520462376, guid: 7775f5b6fe7920b41b0dce3fdcb5165c,
        type: 3}
      propertyPath: m_LocalEulerAnglesHint.x
      value: 0
      objectReference: {fileID: 0}
    - target: {fileID: 5372545297520462376, guid: 7775f5b6fe7920b41b0dce3fdcb5165c,
        type: 3}
      propertyPath: m_LocalEulerAnglesHint.y
      value: 0
      objectReference: {fileID: 0}
    - target: {fileID: 5372545297520462376, guid: 7775f5b6fe7920b41b0dce3fdcb5165c,
        type: 3}
      propertyPath: m_LocalEulerAnglesHint.z
      value: 0
      objectReference: {fileID: 0}
    - target: {fileID: 9176912846894136922, guid: 7775f5b6fe7920b41b0dce3fdcb5165c,
        type: 3}
      propertyPath: m_Name
      value: Railing2
      objectReference: {fileID: 0}
    m_RemovedComponents: []
  m_SourcePrefab: {fileID: 100100000, guid: 7775f5b6fe7920b41b0dce3fdcb5165c, type: 3}
