%YAML 1.1
%TAG !u! tag:unity3d.com,2011:
--- !u!1001 &3837846621389483613
PrefabInstance:
  m_ObjectHideFlags: 0
  serializedVersion: 2
  m_Modification:
    m_TransformParent: {fileID: 0}
    m_Modifications:
    - target: {fileID: 475649184853574606, guid: 7775f5b6fe7920b41b0dce3fdcb5165c,
        type: 3}
      propertyPath: m_Sprite
      value: 
      objectReference: {fileID: 21300000, guid: d4e3cad84c04bc2468b590d3d63d00a5,
        type: 3}
    - target: {fileID: 3192578198085625151, guid: 7775f5b6fe7920b41b0dce3fdcb5165c,
        type: 3}
      propertyPath: m_Points.m_Paths.Array.data[0].Array.size
      value: 6
      objectReference: {fileID: 0}
    - target: {fileID: 3192578198085625151, guid: 7775f5b6fe7920b41b0dce3fdcb5165c,
        type: 3}
      propertyPath: m_Points.m_Paths.Array.data[0].Array.data[7].x
      value: -0.14662309
      objectReference: {fileID: 0}
    - target: {fileID: 3192578198085625151, guid: 7775f5b6fe7920b41b0dce3fdcb5165c,
        type: 3}
      propertyPath: m_Points.m_Paths.Array.data[0].Array.data[7].y
      value: -0.94925743
      objectReference: {fileID: 0}
    - target: {fileID: 3192578198085625151, guid: 7775f5b6fe7920b41b0dce3fdcb5165c,
        type: 3}
      propertyPath: m_Points.m_Paths.Array.data[0].Array.data[6].x
      value: -0.60287297
      objectReference: {fileID: 0}
    - target: {fileID: 3192578198085625151, guid: 7775f5b6fe7920b41b0dce3fdcb5165c,
        type: 3}
      propertyPath: m_Points.m_Paths.Array.data[0].Array.data[6].y
      value: -0.95192415
      objectReference: {fileID: 0}
    - target: {fileID: 3192578198085625151, guid: 7775f5b6fe7920b41b0dce3fdcb5165c,
        type: 3}
      propertyPath: m_Points.m_Paths.Array.data[0].Array.data[5].x
      value: -0.60287297
      objectReference: {fileID: 0}
    - target: {fileID: 3192578198085625151, guid: 7775f5b6fe7920b41b0dce3fdcb5165c,
        type: 3}
      propertyPath: m_Points.m_Paths.Array.data[0].Array.data[5].y
      value: -0.95192415
      objectReference: {fileID: 0}
    - target: {fileID: 3192578198085625151, guid: 7775f5b6fe7920b41b0dce3fdcb5165c,
        type: 3}
      propertyPath: m_Points.m_Paths.Array.data[0].Array.data[4].x
      value: -0.70974016
      objectReference: {fileID: 0}
    - target: {fileID: 3192578198085625151, guid: 7775f5b6fe7920b41b0dce3fdcb5165c,
        type: 3}
      propertyPath: m_Points.m_Paths.Array.data[0].Array.data[4].y
      value: -0.26406765
      objectReference: {fileID: 0}
    - target: {fileID: 3192578198085625151, guid: 7775f5b6fe7920b41b0dce3fdcb5165c,
        type: 3}
      propertyPath: m_Points.m_Paths.Array.data[0].Array.data[3].x
      value: -0.57013804
      objectReference: {fileID: 0}
    - target: {fileID: 3192578198085625151, guid: 7775f5b6fe7920b41b0dce3fdcb5165c,
        type: 3}
      propertyPath: m_Points.m_Paths.Array.data[0].Array.data[3].y
      value: 0.2608835
      objectReference: {fileID: 0}
    - target: {fileID: 3192578198085625151, guid: 7775f5b6fe7920b41b0dce3fdcb5165c,
        type: 3}
      propertyPath: m_Points.m_Paths.Array.data[0].Array.data[2].y
      value: 0.7772777
      objectReference: {fileID: 0}
    - target: {fileID: 3192578198085625151, guid: 7775f5b6fe7920b41b0dce3fdcb5165c,
        type: 3}
      propertyPath: m_Points.m_Paths.Array.data[0].Array.data[2].x
      value: -0.49060732
      objectReference: {fileID: 0}
    - target: {fileID: 3192578198085625151, guid: 7775f5b6fe7920b41b0dce3fdcb5165c,
        type: 3}
      propertyPath: m_Points.m_Paths.Array.data[0].Array.data[1].x
      value: 0.4641297
      objectReference: {fileID: 0}
    - target: {fileID: 3192578198085625151, guid: 7775f5b6fe7920b41b0dce3fdcb5165c,
        type: 3}
      propertyPath: m_Points.m_Paths.Array.data[0].Array.data[1].y
      value: 0.80182356
      objectReference: {fileID: 0}
    - target: {fileID: 3192578198085625151, guid: 7775f5b6fe7920b41b0dce3fdcb5165c,
        type: 3}
      propertyPath: m_Points.m_Paths.Array.data[0].Array.data[0].y
      value: -0.9413955
      objectReference: {fileID: 0}
    - target: {fileID: 3192578198085625151, guid: 7775f5b6fe7920b41b0dce3fdcb5165c,
        type: 3}
      propertyPath: m_Points.m_Paths.Array.data[0].Array.data[0].x
      value: 0.36174735
      objectReference: {fileID: 0}
    - target: {fileID: 5372545297520462376, guid: 7775f5b6fe7920b41b0dce3fdcb5165c,
        type: 3}
      propertyPath: m_LocalPosition.x
      value: 0
      objectReference: {fileID: 0}
    - target: {fileID: 5372545297520462376, guid: 7775f5b6fe7920b41b0dce3fdcb5165c,
        type: 3}
      propertyPath: m_LocalPosition.y
      value: 0
      objectReference: {fileID: 0}
    - target: {fileID: 5372545297520462376, guid: 7775f5b6fe7920b41b0dce3fdcb5165c,
        type: 3}
      propertyPath: m_LocalPosition.z
      value: 0
      objectReference: {fileID: 0}
    - target: {fileID: 5372545297520462376, guid: 7775f5b6fe7920b41b0dce3fdcb5165c,
        type: 3}
      propertyPath: m_LocalRotation.x
      value: 0
      objectReference: {fileID: 0}
    - target: {fileID: 5372545297520462376, guid: 7775f5b6fe7920b41b0dce3fdcb5165c,
        type: 3}
      propertyPath: m_LocalRotation.y
      value: 0
      objectReference: {fileID: 0}
    - target: {fileID: 5372545297520462376, guid: 7775f5b6fe7920b41b0dce3fdcb5165c,
        type: 3}
      propertyPath: m_LocalRotation.z
      value: 0
      objectReference: {fileID: 0}
    - target: {fileID: 5372545297520462376, guid: 7775f5b6fe7920b41b0dce3fdcb5165c,
        type: 3}
      propertyPath: m_LocalRotation.w
      value: 1
      objectReference: {fileID: 0}
    - target: {fileID: 5372545297520462376, guid: 7775f5b6fe7920b41b0dce3fdcb5165c,
        type: 3}
      propertyPath: m_RootOrder
      value: 0
      objectReference: {fileID: 0}
    - target: {fileID: 5372545297520462376, guid: 7775f5b6fe7920b41b0dce3fdcb5165c,
        type: 3}
      propertyPath: m_LocalEulerAnglesHint.x
      value: 0
      objectReference: {fileID: 0}
    - target: {fileID: 5372545297520462376, guid: 7775f5b6fe7920b41b0dce3fdcb5165c,
        type: 3}
      propertyPath: m_LocalEulerAnglesHint.y
      value: 0
      objectReference: {fileID: 0}
    - target: {fileID: 5372545297520462376, guid: 7775f5b6fe7920b41b0dce3fdcb5165c,
        type: 3}
      propertyPath: m_LocalEulerAnglesHint.z
      value: 0
      objectReference: {fileID: 0}
    - target: {fileID: 9176912846894136922, guid: 7775f5b6fe7920b41b0dce3fdcb5165c,
        type: 3}
      propertyPath: m_Name
      value: Railing16
      objectReference: {fileID: 0}
    m_RemovedComponents: []
  m_SourcePrefab: {fileID: 100100000, guid: 7775f5b6fe7920b41b0dce3fdcb5165c, type: 3}
