%YAML 1.1
%TAG !u! tag:unity3d.com,2011:
--- !u!687078895 &4343727234628468602
SpriteAtlas:
  m_ObjectHideFlags: 0
  m_CorrespondingSourceObject: {fileID: 0}
  m_PrefabInstance: {fileID: 0}
  m_PrefabAsset: {fileID: 0}
  m_Name: VFX
  m_EditorData:
    serializedVersion: 2
    textureSettings:
      serializedVersion: 2
      anisoLevel: 1
      compressionQuality: 50
      maxTextureSize: 2048
      textureCompression: 0
      filterMode: 1
      generateMipMaps: 0
      readable: 1
      crunchedCompression: 0
      sRGB: 1
    platformSettings: []
    packingSettings:
      serializedVersion: 2
      padding: 4
      blockOffset: 1
      allowAlphaSplitting: 0
      enableRotation: 0
      enableTightPacking: 0
    variantMultiplier: 1
    packables:
    - {fileID: 102900000, guid: 4bbab80e571360d4f8a07cb18f9b1773, type: 3}
    bindAsDefault: 1
    isAtlasV2: 0
    cachedData: {fileID: 0}
  m_MasterAtlas: {fileID: 0}
  m_PackedSprites:
  - {fileID: 21300000, guid: a24ddf60e542dde4faee6fc412741e10, type: 3}
  - {fileID: 21300000, guid: 7da973a0b20ff4847bdfcd426add839e, type: 3}
  - {fileID: 21300000, guid: 2566c4b0444004e4a9ea5b55ca586253, type: 3}
  - {fileID: 21300000, guid: 62c8e3036905e3940b3c7ed54b570323, type: 3}
  - {fileID: 21300000, guid: a7e97364d62894e4f93ea33e1370de6c, type: 3}
  - {fileID: 21300000, guid: 2d988705cf432fa4093898e9a4ba02fa, type: 3}
  - {fileID: 21300000, guid: 5d96f80a70c2cd94ba75472db5c44d4d, type: 3}
  - {fileID: 21300000, guid: 7e19f53a04cc508429fed2f4945549d8, type: 3}
  - {fileID: 21300000, guid: 18817f0f86ae84948a836a07c69747b3, type: 3}
  - {fileID: 21300000, guid: cd5db69f000b1ad4594c99b98f35253a, type: 3}
  m_PackedSpriteNamesToIndex:
  - cloud_destroy_2
  - feather_vfx_cloud
  - cloud_repair_3
  - cloud_03
  - cloud_destroy_1
  - cloud_destroy_3
  - cloud_repair_1
  - cloud_01
  - cloud_repair_2
  - cloud_02
  m_Tag: VFX
  m_IsVariant: 0
